{
  "logo": "https://media.licdn.com/dms/image/C560BAQF8UXSN9PVGCA/company-logo_200_200/0?e=2159024400&v=beta&t=-fnn2kNC9sG0G86rVi8vg-_WVvf_jwQCDy9Vm0J7zEg",
  "title": "Pronóstico de demanda de energía eléctrica en tiempo real",
  "RVersion": "3.4.3",
  "RPath": "/Library/Frameworks/R.framework/Resources/bin/",
  "version": "0.0.0-dev",
  "optionsArea": [{ "label": "CARIBE", "value": "CARIBE", "subestaciones": [{ "label": "URIBIA", "value": "URIBIA" }, { "label": "CARTAGENA", "value": "CARTAGENA" }] }, { "label": "QUINDIO", "value": "QUINDIO", "subestaciones": [{ "label": "REGIVI", "value": "REGIVI" }, { "label": "TEBAID", "value": "TEBAID" }, { "label": "ARMENIA", "value": "ARMENIA" }] }, { "label": "YUMBO", "value": "YUMBO", "subestaciones": [{ "label": "YUMSOLAR", "value": "YUMSOLAR" }] }],
  "training": {
    "activeTab": "entrenamiento",
    "tabs": [{
      "name": "entrenamiento",
      "label": "Entrenamiento",
      "right": {
        "activeTab": "entrenamiento_GAM",
        "tabs": [{
          "name": "entrenamiento_GAM",
          "bind": "pronosticar_GAM",
          "visible": true,
          "label": "GAM",
          "inputs": [{
            "name": "k",
            "label": "Numero de nudos para estimar el modelo GAM",
            "value": 5,
            "default": 5,
            "Category": "entrenamiento_GAM",
            "type": "number",
            "max": 12,
            "min": 2,
            "visible": true,
            "disabled": false
          }]
        }, {
          "name": "entrenamiento_ARIMA",
          "bind": "pronosticar_ARIMA",
          "visible": true,
          "label": "ARIMA",
          "inputs": [{
            "name": "Ar",
            "label": "Parte autorregresiva del modelo ARIMA",
            "value": 4,
            "default": 4,
            "Category": "entrenamiento_ARIMA",
            "type": "number",
            "max": 8,
            "min": 0,
            "visible": true
          }, {
            "name": "I",
            "label": "Parte integrada del modelo ARIMA",
            "value": 1,
            "default": 1,
            "Category": "entrenamiento_ARIMA",
            "type": "number",
            "max": 2,
            "min": 0,
            "visible": true
          }, {
            "name": "Ma",
            "label": "Parte de medias moviles del modelo ARIMA",
            "value": 4,
            "default": 4,
            "Category": "entrenamiento_ARIMA",
            "type": "number",
            "max": 8,
            "min": 0,
            "visible": true
          }]
        }, {
          "name": "entrenamiento_ELMAN",
          "bind": "pronosticar_ELMAN",
          "visible": true,
          "label": "ELMAN",
          "inputs": [{
            "name": "capasElman",
            "label": "Número de capas ocultas",
            "value": 2,
            "default": 2,
            "Category": "entrenamiento_ELMAN",
            "type": "number",
            "max": 5,
            "min": 1,
            "visible": true
          }, {
            "name": "neuronasCapa1Elman",
            "label": "Número de neuronas primera capa oculta",
            "value": 10,
            "default": 10,
            "Category": "entrenamiento_ELMAN",
            "type": "number",
            "max": 100,
            "min": 1,
            "visible": true
          }, {
            "name": "neuronasCapa2Elman",
            "label": "Número de neuronas segunda capa oculta",
            "value": 10,
            "default": 10,
            "Category": "entrenamiento_ELMAN",
            "type": "number",
            "max": 100,
            "min": 1,
            "visible": true
          }, {
            "name": "maxitElman",
            "label": "Máximo número de iteraciones",
            "value": 100,
            "default": 100,
            "Category": "entrenamiento_ELMAN",
            "type": "number",
            "max": 1000,
            "min": 10,
            "visible": true
          }, {
            "name": "learnRateElman",
            "label": "Tasa de aprendizaje",
            "value": 0.002,
            "default": 0.002,
            "Category": "entrenamiento_ELMAN",
            "type": "float",
            "max": 10,
            "min": 0.0001,
            "visible": true
          }]
        }, {
          "name": "entrenamiento_LSTM",
          "bind": "pronosticar_LSTM",
          "visible": true,
          "label": "LSTM",
          "inputs": [{
            "name": "capasLSTM",
            "label": "Número de capas ocultas",
            "value": 2,
            "default": 2,
            "Category": "entrenamiento_LSTM",
            "type": "number",
            "max": 4,
            "min": 1,
            "visible": true
          }, {
            "name": "neuronasCapa1LSTM",
            "label": "Número de neuronas primera capa oculta",
            "value": 10,
            "default": 10,
            "Category": "entrenamiento_LSTM",
            "type": "number",
            "max": 100,
            "min": 1,
            "visible": true
          }, {
            "name": "neuronasCapa2LSTM",
            "label": "Número de neuronas segunda capa oculta",
            "value": 10,
            "default": 10,
            "Category": "entrenamiento_LSTM",
            "type": "number",
            "max": 100,
            "min": 1,
            "visible": true
          }, {
            "name": "activacionCapa1LSTM",
            "label": "Funcion de activacion de la primera capa oculta",
            "value": "relu",
            "Category": "entrenamiento_LSTM",
            "type": "character",
            "visible": true,
            "SelectLabel": "linear",
            "SelectValue": "linear"
          }, {
            "name": "activacionCapa2LSTM",
            "label": "Funcion de activacion de la segunda capa oculta",
            "value": "relu",
            "Category": "entrenamiento_LSTM",
            "type": "character",
            "visible": true,
            "SelectLabel": "linear",
            "SelectValue": "linear"
          }, {
            "name": "batchSizeLSTM",
            "label": "Despues de cada cuantos datos se van a actualizar los pesos",
            "value": 500,
            "default": 500,
            "Category": "entrenamiento_LSTM",
            "type": "number",
            "max": 1000,
            "min": 10,
            "visible": true
          }, {
            "name": "maxitLSTM",
            "label": "Máximo número de iteraciones",
            "value": 40,
            "default": 40,
            "Category": "entrenamiento_LSTM",
            "type": "number",
            "max": 1000,
            "min": 10,
            "visible": true
          }, {
            "name": "learnRateLSTM",
            "label": "Tasa de aprendizaje",
            "value": 0.005,
            "default": 0.005,
            "Category": "entrenamiento_LSTM",
            "type": "float",
            "max": 10,
            "min": 0.0001,
            "visible": true
          }]
        }]
      },
      "left": {
        "activeTab": "configuracion",
        "visible": true,
        "tabs": [{
          "name": "configuracion",
          "label": "Configuración",
          "visible": true,
          "inputs": [{
            "position": "left",
            "name": "pronosticar_RL",
            "label": "Estimar modelo de regresión lineal",
            "default": false,
            "value": false,
            "Category": "entrenamiento",
            "type": "checkbox",
            "disabled": false,
            "visible": true
          }, {
            "position": "left",
            "name": "pronosticar_GAM",
            "label": "Estimar modelo GAM",
            "default": true,
            "value": true,
            "Category": "entrenamiento",
            "type": "checkbox",
            "disabled": false,
            "visible": true
          }, {
            "position": "left",
            "name": "pronosticar_ELMAN",
            "label": "Entrenar Red Neuronal ELMAN",
            "value": true,
            "default": true,
            "Category": "entrenamiento",
            "type": "checkbox",
            "disabled": false,
            "visible": true
          }, {
            "position": "left",
            "name": "pronosticar_LSTM",
            "label": "Entrenar Red Neuronal LSTM",
            "value": true,
            "default": true,
            "Category": "entrenamiento",
            "type": "checkbox",
            "disabled": false,
            "visible": true
          }, {
            "position": "left",
            "name": "pronosticar_ARIMA",
            "label": "Estimar modelo ARIMAX",
            "value": true,
            "default": true,
            "Category": "entrenamiento",
            "type": "checkbox",
            "disabled": false,
            "visible": true
          }, {
            "position": "left",
            "name": "escalarDemanda",
            "label": "Escalar demanda para entrenamiento",
            "value": true,
            "default": true,
            "Category": "entrenamiento",
            "type": "checkbox",
            "visible": true,
            "disabled": false
          }, {
            "name": "escalarExogenas",
            "label": "Escalar variables exógenas",
            "value": true,
            "default": true,
            "type": "checkbox",
            "visible": true,
            "disabled": false
          }, {
            "name": "rezago_minutos",
            "label": "Número de periodos (5 min) rezagados",
            "value": 15,
            "default": 15,
            "Category": "entrenamiento",
            "description": "No aplica para redes neuronales",
            "type": "number",
            "max": 24,
            "min": 1,
            "disabled": false,
            "visible": true
          }, {
            "name": "rezago_dias",
            "label": "Número de días rezagados",
            "value": 14,
            "default": 14,
            "Category": "entrenamiento",
            "type": "number",
            "max": 30,
            "min": 7,
            "disabled": false,
            "visible": true
          }, {
            "name": "rezago_minuto_dias",
            "label": "Número de periodos rezagados de las semanas anteriores",
            "value": 3,
            "default": 3,
            "Category": "entrenamiento",
            "description": "El número de semanas que se tienen en cuenta sería la parte entera de relación rezago_dias/7",
            "type": "number",
            "max": 24,
            "min": 1,
            "disabled": false,
            "visible": true
          }, {
            "position": "left",
            "name": "nDatosEnt",
            "label": "Periodicidad de estimación de modelos",
            "value": 288,
            "default": 288,
            "type": "number",
            "max": 8064,
            "min": 288,
            "visible": true,
            "disabled": false
          }, {
            "position": "left",
            "label": "Estimar modelo GAM",
            "type": "button",
            "disabled": false,
            "visible": true
          }]
        }]
      }
    }, {
      "name": "pronostico",
      "label": "Pronóstico",
      "right": {
        "activeTab": "",
        "tabs": []
      },
      "left": {
        "activeTab": "configuracion",
        "visible": true,
        "tabs": [{
          "name": "configuracion",
          "label": "Configuración",
          "visible": true,
          "inputs": [{
            "position": "left",
            "name": "diasPronostico",
            "label": "Días a pronosticar",
            "value": 14,
            "default": 14,
            "type": "number",
            "unit": "días",
            "max": 14,
            "min": 1,
            "disabled": false,
            "visible": true
          }, {
            "position": "left",
            "name": "nDatosPron",
            "label": "Periodicidad de pronostico en tiempo real",
            "value": 1,
            "default": 1,
            "Category": "pronostico",
            "type": "number",
            "unit": "Periodos de 5 min",
            "max": 288,
            "min": 1,
            "disabled": false,
            "visible": true
          }]
        }]
      }
    }, {
      "name": "imputacion",
      "label": "Imputación",
      "right": {
        "activeTab": "",
        "tabs": []
      },
      "left": {
        "activeTab": "configuracion",
        "visible": true,
        "tabs": [{
          "name": "configuracion",
          "label": "Configuración",
          "visible": true,
          "inputs": [{
            "position": "left",
            "name": "nivelConf",
            "label": "Nivel de confianza para la imputación de datos en tiempo real",
            "value": 0.95,
            "unit": "Adimensional",
            "Category": "imputacion",
            "type": "float",
            "max": 1,
            "min": 0.6,
            "disabled": false,
            "visible": true
          }, {
            "position": "right",
            "name": "nDatosFilt",
            "label": "Periodicidad de filtrado en tiempo real",
            "value": 72,
            "default": 72,
            "type": "number",
            "unit": "Periodos de 5 min",
            "max": 288,
            "min": 1,
            "disabled": false,
            "visible": true
          }, {
            "position": "left",
            "name": "PenFiltrHP",
            "label": "Constante de penalidad del filtro Hodrick-Prescott",
            "value": 50,
            "default": 50,
            "type": "float",
            "max": 10000,
            "min": 1,
            "unit": "Adimensional",
            "disabled": false,
            "visible": true
          }]
        }]
      }
    }, {
      "name": "correccion",
      "label": "Corrección",
      "right": {
        "activeTab": "",
        "tabs": []
      },
      "left": {
        "activeTab": "configuracion",
        "visible": true,
        "tabs": [{
          "name": "configuracion",
          "label": "Configuración",
          "visible": true,
          "inputs": [{
              "position": "right",
              "name": "nPerAntCorrec",
              "label": "Número de periodos a usar para el cálculo de errores anteriores al actual en la corrección de de pronósticos",
              "value": 12,
              "default": 12,
              "Category": "correccion",
              "type": "number",
              "unit": "Periodos de 5 min",
              "max": 288,
              "min": 1,
              "visible": true
            }, {
              "position": "right",
              "name": "alphaCorrec",
              "label": "Coeficiente de ponderación de errores en la corrección de pronósticos",
              "value": 0.8,
              "default": 0.8,
              "Category": "correccion",
              "type": "float",
              "unit": "Adimensional",
              "max": 1,
              "min": 0,
              "visible": true
            },
            {
              "position": "right",
              "name": "nPasosGrafCorr",
              "label": "Número de pasos adelante a corregir",
              "value": 36,
              "default": 36,
              "Category": "correccion",
              "type": "number",
              "unit": "Adimensional",
              "max": 72,
              "min": 1,
              "visible": true
            }


          ]
        }]
      }
    }, {
      "name": "combinacion",
      "label": "Combinación",
      "right": {
        "activeTab": "",
        "tabs": []
      },
      "left": {
        "activeTab": "configuracion",
        "visible": true,
        "tabs": [{
          "name": "configuracion",
          "label": "Configuración",
          "visible": true,
          "inputs": [{
            "position": "left",
            "name": "nDiasHistComb",
            "label": "Número de días a usar para el cálculo de errores históricos en la combinación de pronósticos",
            "value": 1,
            "default": 1,
            "Category": "combinacion",
            "type": "number",
            "unit": "días",
            "max": 10,
            "min": 1,
            "disabled": false,
            "visible": true
          }, {
            "position": "right",
            "name": "metodo_comb",
            "label": "Metodología de combinación de pronósticos",
            "value": 3,
            "default": 3,
            "type": "select",
            "disabled": false,
            "visible": true,
            "options": [{
              "label": "Promedio simple",
              "value": 1
            }, {
              "label": "Mínima suma de residuos al cuadrado",
              "value": 2
            }, {
              "label": "Mínima varianza del error",
              "value": 3
            }]
          }]
        }]
      }
    }, {
      "name": "desagregacion",
      "label": "Desagregación",
      "right": {
        "activeTab": "",
        "tabs": []
      },
      "left": {
        "activeTab": "configuracion",
        "visible": true,
        "tabs": [{
          "name": "configuracion",
          "label": "Configuración",
          "visible": true,
          "inputs": [{
            "name": "kClusters",
            "label": "Número de clusters por hora por tipo de día",
            "value": 10,
            "default": 10,
            "Category": "desagregacion",
            "type": "number",
            "unit": "clústeres",
            "max": 15,
            "min": 2,
            "visible": true,
            "disabled": false
          }, {
            "name": "nDatosClust",
            "label": "Periodicidad de ajuste de clusters en tiempo real",
            "value": 288,
            "default": 288,
            "Category": "desagregacion",
            "type": "number",
            "unit": "Periodos",
            "max": 4032,
            "min": 288,
            "visible": true,
            "disabled": false
          }, {
            "name": "Norma",
            "label": "Distancia Clusters",
            "value": 1,
            "default": 1,
            "Category": "desagregacion",
            "description": "Tipo de distancia para determinar nivel de pertenencia en clusters",
            "type": "select",
            "visible": true,
            "disabled": false,
            "options": [{
              "label": "Distancia L1",
              "value": 1
            }, {
              "label": "Distancia L2",
              "value": 2
            }]
          }, {
            "name": "filtrarBarras",
            "label": "Filtrado de pronóstico de barras",
            "value": true,
            "default": true,
            "Category": "desagregacion",
            "description": "Se emplea el filtro de Hodrick y Prescott",
            "type": "checkbox",
            "visible": true
          }]
        }]
      }
    }, {
      "name": "correccionFiltrado",
      "label": "Corrección y Filtrado",
      "right": {
        "activeTab": "",
        "tabs": []
      },
      "left": {
        "activeTab": "configuracion",
        "visible": true,
        "tabs": [{
          "name": "configuracion",
          "label": "Configuración",
          "visible": true,
          "inputs": [{
            "name": "Construye_BD",
            "label": "Corregir y filtrar BD",
            "value": false,
            "default": false,
            "type": "checkbox",
            "unit": null,
            "visible": true,
            "disabled": false
          }, {
            "name": "lambdaBD",
            "label": "Constante de penalidad del filtro Hodrick-Prescott para la base de datos",
            "value": 50,
            "default": 50,
            "type": "number",
            "visible": true,
            "disabled": false
          }, {
            "name": "nDiasBloque",
            "label": "Número de días por bloque para el filtrado de la base de datos",
            "description": "El filtrado completo se realiza por bloques de días",
            "value": 5,
            "default": 5,
            "type": "number",
            "max": 14,
            "min": 1,
            "visible": true,
            "disabled": false
          }]
        }]
      }
    }, {
      "name": "curvaDuracionCarga",
      "label": "Curva de duración de carga",
      "right": {
        "activeTab": "",
        "tabs": []
      },
      "left": {
        "activeTab": "configuracion",
        "visible": true,
        "tabs": [{
          "name": "configuracion",
          "label": "Configuración",
          "visible": true,
          "inputs": [{
            "name": "numBloque",
            "label": "Número de bloques",
            "value": 6,
            "default": 6,
            "max": 15,
            "min": 3,
            "type": "number",
            "visible": true,
            "disabled": false
          }]
        }]
      }
    }]
  }
}
