"Periodo","Fecha","Hora","Min","CARIBE_RL","QUINDIO_RL","YUMBO_RL","SIN_RL","CARIBE_c","QUINDIO_c","YUMBO_c","SIN_c","URIBIA_p","CARTAGENA_p","REGIVI_p","TEBAID_p","ARMENIA_p","YUMSOLAR_p"
"36","03/01/2018","2","55","29.475958269447","33.0985191768169","0.0927005638050145","62.3803537787398","29.475958269447","33.0985191768169","0.0927005638050145","62.3803537787398","7.57224183932829","20.5208781637193","10.4864688057835","4.83415566480458","16.5109764503269","1.10235706866247"
"37","03/01/2018","3","0","29.7432466086415","33.250555988235","0.056925557847184","62.7498873369816","29.7432466086415","33.250555988235","0.056925557847184","62.7498873369816","7.47537260221898","19.7064554635416","10.2906618129211","4.70483166103562","16.9801390002964","0.761470149996891"
"38","03/01/2018","3","5","29.9845722677639","33.3877016849461","0.0260338658277144","63.0840990799004","29.9845722677639","33.3877016849461","0.0260338658277144","63.0840990799004","7.47653630239134","19.7065669940008","10.2906185290227","4.7052097838879","16.979851314525","0.76109751417227"
"39","03/01/2018","3","10","30.1928046399788","33.5043497438301","0.000597092757643237","63.369034693144","30.1928046399788","33.5043497438301","0.000597092757643237","63.369034693144","7.47829419037035","19.7022703267701","10.2905793492746","4.7055717481958","16.9794528295515","0.763734261325032"
"40","03/01/2018","3","15","30.3624954761101","33.5969450904847","-0.0192156468596825","63.5946353370814","30.3624954761101","33.5969450904847","-0.0192156468596825","63.5946353370814","7.48055218396004","19.7004015967714","10.2905139056206","4.70595054222404","16.9789198020172","0.767033397369525"
"41","03/01/2018","3","20","30.4902324297216","33.6630469110163","-0.0336106132651287","63.7541367234066","30.4902324297216","33.6630469110163","-0.0336106132651287","63.7541367234066","7.48285850670803","19.6978687638646","10.2904776943306","4.70631118683342","16.9784521781773","0.770656813117004"